3 Manipulation Tableaux – Initiation à R dans le cadre d'une recherche épidémiologique
…
 Par exemple, si l’on souhaite avoir l’espérance de vie moyenne par pays et par sexe à 65 ans et savoir sur combien d’années la moyenne est faite dans chaque pays (nombre de valeurs d’esperance de vie par pays), on peut faire :

df_group <- df %>% 
  filter(!(geo %in% c("EA19", "EA20", "EU27_2007", "EU27_2020", "EU28" ))) %>% 
  group_by(geo, sex) %>% 
  summarise(meanEsp = mean(OBS_VALUE),
            Nb_Years = n())

`summarise()` has grouped output by 'geo'. You can override using the `.groups`
argument.

df_group

# A tibble: 141 × 4
# Groups:   geo [47]
   geo   sex   meanEsp Nb_Years
   <chr> <chr>   <dbl>    <int>
 1 AL    F        18.0        9
 2 AL    M        16.4        9
 3 AL    T        17.2        9
 4 AM    F        17.6        5
 5 AM    M        14.8        5
 6 AM    T        16.4        5
 7 AT    F        21.5       12
 8 AT    M        18.2       12
 9 AT    T        20.0       12
10 AZ    F        16.9        8
# ℹ 131 more rows
